<svg viewBox="0 0 20 25" fill="none" xmlns="http://www.w3.org/2000/svg">
  <path d="M.632 5.13v18.733h14.291a4.094 4.094 0 004.097-4.097V1.94H0" stroke="#171321" stroke-width="1.17" stroke-miterlimit="10" fill-opacity="0" />
  <path d="M14.73 12.181H4.928v7.597h9.802v-7.596z" fill="#F6F3FE" />
  <path d="M15.193.137H4.459v4.15h10.734V.137z" fill="#7759C2" />
  <path d="M7.064 8.5h7.666m0 11.278H4.928v-7.596" stroke="#171321" stroke-width="1.17" stroke-miterlimit="10" fill-opacity="0" />
  <path d="M7.192 15.98l1.85-1.967 2.64 2.81 1.573-1.873" stroke="#171321" stroke-width="1.17" stroke-miterlimit="10" fill-opacity="0" />
  <path d="M4.928 8.688a.187.187 0 100-.375.187.187 0 000 .375z" fill="currentColor" stroke="#171321" stroke-width="1.17" stroke-miterlimit="10" fill-opacity="0" />
</svg>