<svg viewBox="0 0 32 32" fill="currentColor" xmlns="http://www.w3.org/2000/svg">
<path d="M27 32H0V30H27C28.66 30 30 28.66 30 27V2H2V26H0V0H32V27C32 29.76 29.76 32 27 32Z"/>
<path d="M8 6H6V8H8V6Z"/>
<path d="M26 6H12V8H26V6Z"/>
<path d="M19.8801 21.72L17.5601 13.66L25.6201 15.98L19.8601 21.74L19.8801 21.72ZM20.4801 16.58L20.8601 17.92L21.8201 16.96L20.4801 16.58Z"/>
<path d="M21.0596 15.631L19.6454 17.0452L24.2981 21.698L25.7124 20.2838L21.0596 15.631Z"/>
</svg>
